{
"type": "FeatureCollection",
"name": "Land_Use",
"crs": { "type": "name", "properties": { "name": "urn:ogc:def:crs:OGC:1.3:CRS84" } },
"features": [
{ "type": "Feature", "properties": { "FID": 560103, "C_DIG1": 1, "C_DIG1DESC": "1", "C_DIG2": 12, "C_DIG2DESC": "12", "C_DIG3": 121, "C_DIG3DESC": "121", "VACBLDG": null, "YEAR": 2016, "SHAPE_Length": 0.00095653254527758704, "SHAPE_Area": 2.5467031669655707e-08 }, "geometry": { "type": "MultiPolygon", "coordinates": [ [ [ [ -74.970180243999948, 40.084320594000076 ], [ -74.970435767999959, 40.084005130000037 ], [ -74.97048046599997, 40.084022614000048 ], [ -74.970495382999957, 40.084028448000026 ], [ -74.970229142999983, 40.084357483000076 ], [ -74.970223578999935, 40.084358574000078 ], [ -74.970180243999948, 40.084320594000076 ] ] ] ] } },
{ "type": "Feature", "properties": { "FID": 560104, "C_DIG1": 1, "C_DIG1DESC": "1", "C_DIG2": 12, "C_DIG2DESC": "12", "C_DIG3": 121, "C_DIG3DESC": "121", "VACBLDG": null, "YEAR": 2016, "SHAPE_Length": 0.00098755860103540887, "SHAPE_Area": 2.5641819250965331e-08 }, "geometry": { "type": "MultiPolygon", "coordinates": [ [ [ [ -74.969490034999978, 40.082113349000053 ], [ -74.969529117999969, 40.082086632000028 ], [ -74.96954356699996, 40.082077679000065 ], [ -74.969592545999944, 40.082112558000063 ], [ -74.969625037999947, 40.082134477000068 ], [ -74.969889724999973, 40.08231414800008 ], [ -74.969879301999981, 40.082329700000059 ], [ -74.969856236999988, 40.082364118000044 ], [ -74.969490034999978, 40.082113349000053 ] ] ] ] } }
]
}